^D:\University\GP\project\Podina_GP_Project\Podina_GP_Project.vcxproj
D:\University\GP\project\Podina_GP_Project\x64\Release\Podina_GP_Project.ipdb
D:\University\GP\project\Podina_GP_Project\x64\Release\Podina_GP_Project.iobj
^D:\University\GP\refactored_project\Podina_GP_Project\Podina_GP_Project.vcxproj
D:\University\GP\refactored_project\Podina_GP_Project\x64\Release\Podina_GP_Project.ipdb
D:\University\GP\refactored_project\Podina_GP_Project\x64\Release\Podina_GP_Project.iobj
